MSDS 6306 Wk5 Case Study
…
## The following objects are masked from 'package:base':
## 
##     intersect, setdiff, setequal, union

BrewFrame <- Breweries

BeerFrame <- Beers

count(BrewFrame, BrewFrame$State)

## Warning: package 'bindrcpp' was built under R version 3.4.4

## # A tibble: 51 x 2
##    `BrewFrame$State`     n
##    <fct>             <int>
##  1 " AK"                 7
##  2 " AL"                 3
##  3 " AR"                 2
##  4 " AZ"                11
##  5 " CA"                39
##  6 " CO"                47
##  7 " CT"                 8
##  8 " DC"                 1
##  9 " DE"                 2
## 10 " FL"                15
## # ... with 41 more rows

brew_count <- count(BrewFrame, BrewFrame$State)

colnames(brew_count) <- c("State", "Count")

brew_count

## # A tibble: 51 x 2
##    State Count
##    <fct> <int>
##  1 " AK"     7
##  2 " AL"     3
##  3 " AR"     2
##  4 " AZ"    11
##  5 " CA"    39
##  6 " CO"    47
##  7 " CT"     8
##  8 " DC"     1
##  9 " DE"     2
## 10 " FL"    15
## # ... with 41 more rows
…
